…
    > library(RPostgres)
    > library(DBI)
    > library(haven)
    > source("c:/oto/fn_tosas9x.R");
    > have<-read_sas("d:/sd1/have.sas7bdat")
    > colnames(have)<-c("pos","homer")
    > have
    # A tibble: 51 × 2
       pos   homer
       <chr> <dbl>
     1 RF       20
     2 LF       10
     3 RF       13
     4 LF        4
     5 LF       20
     6 LF        6
     7 RF       13
     8 RF        2
     9 LF        1
    10 LF       20
    # ℹ 41 more rows
…
